<?xml version="1.0" encoding="UTF-8" standalone="no"?>
<!-- Created with Inkscape (http://www.inkscape.org/) -->

<svg
   xmlns:dc="http://purl.org/dc/elements/1.1/"
   xmlns:cc="http://creativecommons.org/ns#"
   xmlns:rdf="http://www.w3.org/1999/02/22-rdf-syntax-ns#"
   xmlns:svg="http://www.w3.org/2000/svg"
   xmlns="http://www.w3.org/2000/svg"
   xmlns:sodipodi="http://sodipodi.sourceforge.net/DTD/sodipodi-0.dtd"
   xmlns:inkscape="http://www.inkscape.org/namespaces/inkscape"
   width="107.2503mm"
   height="90.661514mm"
   viewBox="0 0 107.25031 90.661512"
   version="1.1"
   id="svg8"
   inkscape:version="0.92.5 (2060ec1f9f, 2020-04-08)"
   sodipodi:docname="avatar.svg"
   inkscape:export-filename="/home/htyao/PhD/Projects/Undesignable/proof_origin_ex.png"
   inkscape:export-xdpi="251"
   inkscape:export-ydpi="251">
  <defs
     id="defs2" />
  <sodipodi:namedview
     id="base"
     pagecolor="#ffffff"
     bordercolor="#666666"
     borderopacity="1.0"
     inkscape:pageopacity="0.0"
     inkscape:pageshadow="2"
     inkscape:zoom="1.873833"
     inkscape:cx="126.65296"
     inkscape:cy="169.05083"
     inkscape:document-units="mm"
     inkscape:current-layer="layer1"
     showgrid="false"
     inkscape:window-width="1848"
     inkscape:window-height="1016"
     inkscape:window-x="72"
     inkscape:window-y="27"
     inkscape:window-maximized="0"
     fit-margin-top="2"
     fit-margin-left="2"
     fit-margin-right="2"
     fit-margin-bottom="2" />
  <metadata
     id="metadata5">
    <rdf:RDF>
      <cc:Work
         rdf:about="">
        <dc:format>image/svg+xml</dc:format>
        <dc:type
           rdf:resource="http://purl.org/dc/dcmitype/StillImage" />
        <dc:title></dc:title>
      </cc:Work>
    </rdf:RDF>
  </metadata>
  <g
     inkscape:label="Layer 1"
     inkscape:groupmode="layer"
     id="layer1"
     transform="translate(111.75607,-69.481997)">
    <g
       id="g2031"
       transform="matrix(0.61247777,0,0,0.61247777,-20.389003,40.610347)"
       style="stroke-width:0.81635618;stroke-miterlimit:4;stroke-dasharray:none">
      <path
         inkscape:connector-curvature="0"
         id="path1138-6-0-2-6"
         d="m -27.273429,129.51157 v 0"
         style="fill:none;stroke:#000000;stroke-width:0.81635618;stroke-linecap:butt;stroke-linejoin:miter;stroke-miterlimit:4;stroke-dasharray:none;stroke-opacity:1" />
      <path
         sodipodi:nodetypes="cc"
         style="fill:none;stroke:#ff0000;stroke-width:0.81635618;stroke-linecap:butt;stroke-linejoin:miter;stroke-miterlimit:4;stroke-dasharray:none;stroke-opacity:1"
         d="m -2.5723786,133.44083 c 0.048074,9.97167 -0.1296945,18.05771 -15.0299054,17.60213"
         id="path4736-7-0-77-6-4"
         inkscape:connector-curvature="0" />
      <path
         sodipodi:nodetypes="cc"
         style="fill:none;stroke:#ff0000;stroke-width:0.81635618;stroke-linecap:butt;stroke-linejoin:miter;stroke-miterlimit:4;stroke-dasharray:none;stroke-opacity:1"
         d="m -38.379758,161.24246 c 9.648771,2.51748 17.526691,4.34893 20.777474,-10.1995"
         id="path4736-7-0-7-0-5-8"
         inkscape:connector-curvature="0" />
      <path
         sodipodi:nodetypes="cc"
         style="fill:none;stroke:#ff0000;stroke-width:0.81635618;stroke-linecap:butt;stroke-linejoin:miter;stroke-miterlimit:4;stroke-dasharray:none;stroke-opacity:1"
         d="m -44.552971,116.33157 c 8.611692,-5.02745 15.703279,-8.91651 22.758839,4.21521"
         id="path4736-7-0-3-6-1"
         inkscape:connector-curvature="0" />
      <path
         sodipodi:nodetypes="cc"
         style="fill:none;stroke:#ff0000;stroke-width:0.81635618;stroke-linecap:butt;stroke-linejoin:miter;stroke-miterlimit:4;stroke-dasharray:none;stroke-opacity:1"
         d="m -2.5723786,133.44083 c -2.644193,-9.61482 -4.9970748,-17.35301 -19.2217534,-12.89405"
         id="path4736-7-0-7-1-9-2"
         inkscape:connector-curvature="0" />
      <path
         inkscape:connector-curvature="0"
         id="path4736-1-3-9"
         d="m -19.969423,130.31895 -10.115842,-4.12274"
         style="fill:none;stroke:#ff0000;stroke-width:0.81635618;stroke-linecap:butt;stroke-linejoin:miter;stroke-miterlimit:4;stroke-dasharray:none;stroke-opacity:1" />
      <path
         inkscape:connector-curvature="0"
         id="path4736-1-4-7-3"
         d="m -27.110197,147.84011 8.628315,-6.69922"
         style="fill:none;stroke:#ff0000;stroke-width:0.81635618;stroke-linecap:butt;stroke-linejoin:miter;stroke-miterlimit:4;stroke-dasharray:none;stroke-opacity:1" />
      <path
         inkscape:connector-curvature="0"
         id="path4736-1-6-4-9"
         d="m -37.226036,143.71736 -1.487551,-10.82195"
         style="fill:none;stroke:#ff0000;stroke-width:0.81635618;stroke-linecap:butt;stroke-linejoin:miter;stroke-miterlimit:4;stroke-dasharray:none;stroke-opacity:1" />
      <path
         inkscape:connector-curvature="0"
         id="path4736-79-5-0"
         d="m -18.481899,141.14088 -1.487526,-10.82194"
         style="fill:none;stroke:#0000ff;stroke-width:0.81635618;stroke-linecap:butt;stroke-linejoin:miter;stroke-miterlimit:4;stroke-dasharray:none;stroke-opacity:1" />
      <path
         inkscape:connector-curvature="0"
         id="path4736-7-5-2-8"
         d="m -19.969425,130.31894 9.832618,-4.75889"
         style="fill:none;stroke:#ff0000;stroke-width:0.81635618;stroke-linecap:butt;stroke-linejoin:miter;stroke-miterlimit:4;stroke-dasharray:none;stroke-opacity:1" />
      <path
         inkscape:connector-curvature="0"
         id="path4736-5-9-5-8"
         d="m -10.136807,125.56005 7.5644261,7.88078"
         style="fill:none;stroke:#ff0000;stroke-width:0.81635618;stroke-linecap:butt;stroke-linejoin:miter;stroke-miterlimit:4;stroke-dasharray:none;stroke-opacity:1" />
      <path
         inkscape:connector-curvature="0"
         id="path4736-9-3-4-5"
         d="m -2.5723809,133.44083 -5.1575438,9.62949"
         style="fill:none;stroke:#ff0000;stroke-width:0.81635618;stroke-linecap:butt;stroke-linejoin:miter;stroke-miterlimit:4;stroke-dasharray:none;stroke-opacity:1" />
      <path
         inkscape:connector-curvature="0"
         id="path4736-8-4-7-0"
         d="M -7.7299335,143.07032 -18.481899,141.14088"
         style="fill:none;stroke:#ff0000;stroke-width:0.81635618;stroke-linecap:butt;stroke-linejoin:miter;stroke-miterlimit:4;stroke-dasharray:none;stroke-opacity:1" />
      <path
         sodipodi:nodetypes="cc"
         style="fill:none;stroke:#ff0000;stroke-width:0.81635618;stroke-linecap:butt;stroke-linejoin:miter;stroke-miterlimit:4;stroke-dasharray:none;stroke-opacity:1"
         d="m -38.512362,161.34543 c -8.659757,-4.94422 -15.573588,-9.14118 -7.728942,-21.81736"
         id="path4736-7-0-4-9"
         inkscape:connector-curvature="0" />
      <path
         sodipodi:nodetypes="cc"
         style="fill:none;stroke:#ff0000;stroke-width:0.81635618;stroke-linecap:butt;stroke-linejoin:miter;stroke-miterlimit:4;stroke-dasharray:none;stroke-opacity:1"
         d="m -44.685574,116.43454 c -7.004582,7.09733 -12.529617,13.00407 -1.55573,23.09353"
         id="path4736-7-0-7-4-6"
         inkscape:connector-curvature="0" />
      <path
         inkscape:connector-curvature="0"
         id="path4736-96-3-3"
         d="m -37.226055,143.71736 10.115856,4.12273"
         style="fill:none;stroke:#0000ff;stroke-width:0.81635618;stroke-linecap:butt;stroke-linejoin:miter;stroke-miterlimit:4;stroke-dasharray:none;stroke-opacity:1" />
      <path
         inkscape:connector-curvature="0"
         id="path4736-7-56-0-8"
         d="m -27.110199,147.84009 -0.794978,10.89474"
         style="fill:none;stroke:#ff0000;stroke-width:0.81635618;stroke-linecap:butt;stroke-linejoin:miter;stroke-miterlimit:4;stroke-dasharray:none;stroke-opacity:1" />
      <path
         inkscape:connector-curvature="0"
         id="path4736-5-8-7-5"
         d="m -27.905177,158.73483 -10.607185,2.6106"
         style="fill:none;stroke:#ff0000;stroke-width:0.81635618;stroke-linecap:butt;stroke-linejoin:miter;stroke-miterlimit:4;stroke-dasharray:none;stroke-opacity:1" />
      <path
         inkscape:connector-curvature="0"
         id="path4736-9-2-8-6"
         d="m -38.512362,161.34543 -5.760617,-9.28132"
         style="fill:none;stroke:#ff0000;stroke-width:0.81635618;stroke-linecap:butt;stroke-linejoin:miter;stroke-miterlimit:4;stroke-dasharray:none;stroke-opacity:1" />
      <path
         inkscape:connector-curvature="0"
         id="path4736-8-7-6-1"
         d="m -44.272971,152.0641 7.046916,-8.34674"
         style="fill:none;stroke:#ff0000;stroke-width:0.81635618;stroke-linecap:butt;stroke-linejoin:miter;stroke-miterlimit:4;stroke-dasharray:none;stroke-opacity:1" />
      <path
         inkscape:connector-curvature="0"
         id="path4736-88-1"
         d="m -30.085265,126.19621 -8.628314,6.69922"
         style="fill:none;stroke:#0000ff;stroke-width:0.81635618;stroke-linecap:butt;stroke-linejoin:miter;stroke-miterlimit:4;stroke-dasharray:none;stroke-opacity:1" />
      <path
         inkscape:connector-curvature="0"
         id="path4736-7-4-5"
         d="m -38.713579,132.89543 -9.03763,-6.13586"
         style="fill:none;stroke:#ff0000;stroke-width:0.81635618;stroke-linecap:butt;stroke-linejoin:miter;stroke-miterlimit:4;stroke-dasharray:none;stroke-opacity:1" />
      <path
         inkscape:connector-curvature="0"
         id="path4736-5-3-9"
         d="m -47.751209,126.75957 3.042757,-10.49136"
         style="fill:none;stroke:#ff0000;stroke-width:0.81635618;stroke-linecap:butt;stroke-linejoin:miter;stroke-miterlimit:4;stroke-dasharray:none;stroke-opacity:1" />
      <path
         inkscape:connector-curvature="0"
         id="path4736-9-1-8"
         d="m -44.708452,116.26821 10.918154,-0.34818"
         style="fill:none;stroke:#ff0000;stroke-width:0.81635618;stroke-linecap:butt;stroke-linejoin:miter;stroke-miterlimit:4;stroke-dasharray:none;stroke-opacity:1" />
      <path
         inkscape:connector-curvature="0"
         id="path4736-8-49-4"
         d="m -33.790296,115.92004 3.705031,10.27617"
         style="fill:none;stroke:#ff0000;stroke-width:0.81635618;stroke-linecap:butt;stroke-linejoin:miter;stroke-miterlimit:4;stroke-dasharray:none;stroke-opacity:1" />
      <path
         inkscape:transform-center-y="1.9508204"
         inkscape:transform-center-x="10.225654"
         inkscape:connector-curvature="0"
         id="path1138-6-6-4"
         d="m -43.96649,118.53752 v 0"
         style="fill:none;stroke:#000000;stroke-width:0.81635618;stroke-linecap:butt;stroke-linejoin:miter;stroke-miterlimit:4;stroke-dasharray:none;stroke-opacity:1" />
    </g>
    <g
       id="g1699"
       transform="matrix(0.61114201,0,0,0.61114201,-20.514054,40.712732)"
       style="stroke-width:0.81814045;stroke-miterlimit:4;stroke-dasharray:none">
      <path
         inkscape:export-ydpi="251"
         inkscape:export-xdpi="251"
         sodipodi:nodetypes="cc"
         style="fill:none;stroke:#ff0000;stroke-width:0.81814045;stroke-linecap:butt;stroke-linejoin:miter;stroke-miterlimit:4;stroke-dasharray:none;stroke-opacity:1"
         d="m -90.041641,116.27746 c 6.079004,7.90457 11.179634,14.18145 22.667556,4.68134"
         id="path4736-7-0-7-0"
         inkscape:connector-curvature="0" />
      <path
         inkscape:export-ydpi="251"
         inkscape:export-xdpi="251"
         sodipodi:nodetypes="cc"
         style="fill:none;stroke:#ff0000;stroke-width:0.81814045;stroke-linecap:butt;stroke-linejoin:miter;stroke-miterlimit:4;stroke-dasharray:none;stroke-opacity:1"
         d="m -67.383063,77.013227 c 9.885593,1.308252 17.872364,2.583831 15.394997,17.283642"
         id="path4736-7-0-3"
         inkscape:connector-curvature="0" />
      <path
         inkscape:export-ydpi="251"
         inkscape:export-xdpi="251"
         sodipodi:nodetypes="cc"
         style="fill:none;stroke:#ff0000;stroke-width:0.81814045;stroke-linecap:butt;stroke-linejoin:miter;stroke-miterlimit:4;stroke-dasharray:none;stroke-opacity:1"
         d="m -44.708449,116.26821 c 3.806058,-9.21687 6.691671,-16.772578 -7.279617,-21.971341"
         id="path4736-7-0-7-1"
         inkscape:connector-curvature="0" />
      <path
         inkscape:export-ydpi="251"
         inkscape:export-xdpi="251"
         inkscape:connector-curvature="0"
         id="path4736-1"
         d="m -56.537981,103.13559 -5.463778,-9.459072"
         style="fill:none;stroke:#ff0000;stroke-width:0.81814045;stroke-linecap:butt;stroke-linejoin:miter;stroke-miterlimit:4;stroke-dasharray:none;stroke-opacity:1" />
      <path
         inkscape:export-ydpi="251"
         inkscape:export-xdpi="251"
         inkscape:connector-curvature="0"
         id="path4736-1-4"
         d="m -72.921595,112.59916 10.923699,-0.002"
         style="fill:none;stroke:#ff0000;stroke-width:0.81814045;stroke-linecap:butt;stroke-linejoin:miter;stroke-miterlimit:4;stroke-dasharray:none;stroke-opacity:1" />
      <path
         inkscape:export-ydpi="251"
         inkscape:export-xdpi="251"
         inkscape:connector-curvature="0"
         id="path4736-1-6"
         d="m -78.385365,103.14005 5.459906,-9.461302"
         style="fill:none;stroke:#ff0000;stroke-width:0.81814045;stroke-linecap:butt;stroke-linejoin:miter;stroke-miterlimit:4;stroke-dasharray:none;stroke-opacity:1" />
      <path
         inkscape:export-ydpi="251"
         inkscape:export-xdpi="251"
         inkscape:connector-curvature="0"
         id="path4736-79"
         d="m -61.997896,112.59691 5.459921,-9.46133"
         style="fill:none;stroke:#0000ff;stroke-width:0.81814045;stroke-linecap:butt;stroke-linejoin:miter;stroke-miterlimit:4;stroke-dasharray:none;stroke-opacity:1" />
      <path
         inkscape:export-ydpi="251"
         inkscape:export-xdpi="251"
         inkscape:connector-curvature="0"
         id="path4736-7-5"
         d="m -56.537975,103.13558 10.685461,2.26899"
         style="fill:none;stroke:#ff0000;stroke-width:0.81814045;stroke-linecap:butt;stroke-linejoin:miter;stroke-miterlimit:4;stroke-dasharray:none;stroke-opacity:1" />
      <path
         inkscape:export-ydpi="251"
         inkscape:export-xdpi="251"
         inkscape:connector-curvature="0"
         id="path4736-5-9"
         d="m -45.852514,105.40457 1.144065,10.86363"
         style="fill:none;stroke:#ff0000;stroke-width:0.81814045;stroke-linecap:butt;stroke-linejoin:miter;stroke-miterlimit:4;stroke-dasharray:none;stroke-opacity:1" />
      <path
         inkscape:export-ydpi="251"
         inkscape:export-xdpi="251"
         inkscape:connector-curvature="0"
         id="path4736-8-4"
         d="m -54.686848,120.71331 -7.311048,-8.1164"
         style="fill:none;stroke:#ff0000;stroke-width:0.81814045;stroke-linecap:butt;stroke-linejoin:miter;stroke-miterlimit:4;stroke-dasharray:none;stroke-opacity:1" />
      <path
         inkscape:export-ydpi="251"
         inkscape:export-xdpi="251"
         sodipodi:nodetypes="cc"
         style="fill:none;stroke:#ff0000;stroke-width:0.81814045;stroke-linecap:butt;stroke-linejoin:miter;stroke-miterlimit:4;stroke-dasharray:none;stroke-opacity:1"
         d="m -90.209521,116.2775 c -3.809835,-9.2153 -6.698528,-16.769826 7.270629,-21.974309"
         id="path4736-7-0"
         inkscape:connector-curvature="0" />
      <path
         inkscape:export-ydpi="251"
         inkscape:export-xdpi="251"
         sodipodi:nodetypes="cc"
         style="fill:none;stroke:#ff0000;stroke-width:0.81814045;stroke-linecap:butt;stroke-linejoin:miter;stroke-miterlimit:4;stroke-dasharray:none;stroke-opacity:1"
         d="m -67.550953,77.013263 c -9.885062,1.312288 -17.8713,2.59113 -15.387939,17.289928"
         id="path4736-7-0-7"
         inkscape:connector-curvature="0" />
      <path
         inkscape:export-ydpi="251"
         inkscape:export-xdpi="251"
         inkscape:connector-curvature="0"
         id="path4736-96"
         d="m -78.385374,103.14005 5.46378,9.45909"
         style="fill:none;stroke:#0000ff;stroke-width:0.81814045;stroke-linecap:butt;stroke-linejoin:miter;stroke-miterlimit:4;stroke-dasharray:none;stroke-opacity:1" />
      <path
         inkscape:export-ydpi="251"
         inkscape:export-xdpi="251"
         inkscape:connector-curvature="0"
         id="path4736-7-56"
         d="m -72.921594,112.59914 -7.30772,8.11939"
         style="fill:none;stroke:#ff0000;stroke-width:0.81814045;stroke-linecap:butt;stroke-linejoin:miter;stroke-miterlimit:4;stroke-dasharray:none;stroke-opacity:1" />
      <path
         inkscape:export-ydpi="251"
         inkscape:export-xdpi="251"
         inkscape:connector-curvature="0"
         id="path4736-5-8"
         d="m -80.229314,120.71853 -9.980207,-4.44103"
         style="fill:none;stroke:#ff0000;stroke-width:0.81814045;stroke-linecap:butt;stroke-linejoin:miter;stroke-miterlimit:4;stroke-dasharray:none;stroke-opacity:1" />
      <path
         inkscape:export-ydpi="251"
         inkscape:export-xdpi="251"
         inkscape:connector-curvature="0"
         id="path4736-9-2"
         d="m -90.209521,116.2775 1.139609,-10.8641"
         style="fill:none;stroke:#ff0000;stroke-width:0.81814045;stroke-linecap:butt;stroke-linejoin:miter;stroke-miterlimit:4;stroke-dasharray:none;stroke-opacity:1" />
      <path
         inkscape:export-ydpi="251"
         inkscape:export-xdpi="251"
         inkscape:connector-curvature="0"
         id="path4736-8-7"
         d="m -89.069903,105.41341 10.684529,-2.27336"
         style="fill:none;stroke:#ff0000;stroke-width:0.81814045;stroke-linecap:butt;stroke-linejoin:miter;stroke-miterlimit:4;stroke-dasharray:none;stroke-opacity:1" />
      <path
         inkscape:export-ydpi="251"
         inkscape:export-xdpi="251"
         inkscape:connector-curvature="0"
         id="path4736"
         d="m -62.001759,93.676518 -10.923709,0.0022"
         style="fill:none;stroke:#0000ff;stroke-width:0.81814045;stroke-linecap:butt;stroke-linejoin:miter;stroke-miterlimit:4;stroke-dasharray:none;stroke-opacity:1" />
      <path
         inkscape:export-ydpi="251"
         inkscape:export-xdpi="251"
         inkscape:connector-curvature="0"
         id="path4736-7"
         d="M -72.925468,93.678749 -76.3032,83.290448"
         style="fill:none;stroke:#ff0000;stroke-width:0.81814045;stroke-linecap:butt;stroke-linejoin:miter;stroke-miterlimit:4;stroke-dasharray:none;stroke-opacity:1" />
      <path
         inkscape:export-ydpi="251"
         inkscape:export-xdpi="251"
         inkscape:connector-curvature="0"
         id="path4736-5"
         d="m -76.3032,83.290448 8.836148,-6.422593"
         style="fill:none;stroke:#ff0000;stroke-width:0.81814045;stroke-linecap:butt;stroke-linejoin:miter;stroke-miterlimit:4;stroke-dasharray:none;stroke-opacity:1" />
      <path
         inkscape:export-ydpi="251"
         inkscape:export-xdpi="251"
         inkscape:connector-curvature="0"
         id="path4736-9"
         d="m -67.467052,76.867855 8.83878,6.418973"
         style="fill:none;stroke:#ff0000;stroke-width:0.81814045;stroke-linecap:butt;stroke-linejoin:miter;stroke-miterlimit:4;stroke-dasharray:none;stroke-opacity:1" />
      <path
         inkscape:export-ydpi="251"
         inkscape:export-xdpi="251"
         inkscape:connector-curvature="0"
         id="path4736-8"
         d="m -58.628278,83.286839 -3.373481,10.389679"
         style="fill:none;stroke:#ff0000;stroke-width:0.81814045;stroke-linecap:butt;stroke-linejoin:miter;stroke-miterlimit:4;stroke-dasharray:none;stroke-opacity:1" />
      <path
         inkscape:export-ydpi="251"
         inkscape:export-xdpi="251"
         inkscape:connector-curvature="0"
         id="path4736-9-3"
         d="m -44.708449,116.2682 -9.978395,4.44512"
         style="fill:none;stroke:#ff0000;stroke-width:0.81814045;stroke-linecap:butt;stroke-linejoin:miter;stroke-miterlimit:4;stroke-dasharray:none;stroke-opacity:1" />
      <path
         inkscape:export-ydpi="251"
         inkscape:export-xdpi="251"
         sodipodi:nodetypes="cc"
         style="fill:none;stroke:#ff0000;stroke-width:0.81814045;stroke-linecap:butt;stroke-linejoin:miter;stroke-miterlimit:4;stroke-dasharray:none;stroke-opacity:1"
         d="m -44.708449,116.26821 c -6.075773,7.90704 -11.173847,14.18601 -22.665636,4.69059"
         id="path4736-7-0-77"
         inkscape:connector-curvature="0" />
    </g>
    <g
       transform="matrix(-0.54073872,0.00775311,-0.00775311,-0.54073872,-220.0368,229.18369)"
       id="g5946-3-0" />
    <g
       id="g5946-32"
       transform="matrix(0.42413841,0.33550721,-0.33550721,0.42413841,-1.2046393,142.42766)" />
    <flowRoot
       xml:space="preserve"
       id="flowRoot3456"
       style="font-style:normal;font-weight:normal;font-size:26.66666603px;line-height:1.25;font-family:sans-serif;letter-spacing:0px;word-spacing:0px;fill:#000000;fill-opacity:1;stroke:none"
       transform="matrix(0.26458333,0,0,0.26458333,-153.60914,51.20674)"><flowRegion
         id="flowRegion3458"><rect
           id="rect3460"
           width="437.67471"
           height="391.34702"
           x="-210.91289"
           y="277.30246" /></flowRegion><flowPara
         id="flowPara3462" /></flowRoot>    <g
       id="g5946-32-9"
       transform="matrix(0.40983024,0.35284226,-0.35284226,0.40983024,-12.663753,123.36043)" />
    <rect
       style="opacity:1;fill:#a554ca;fill-opacity:0.58823529;stroke:none;stroke-width:0.51486969;stroke-linecap:round;stroke-linejoin:miter;stroke-miterlimit:4;stroke-dasharray:none;stroke-dashoffset:0;stroke-opacity:1"
       id="rect5404-0-4-4"
       width="7.9475708"
       height="19.438707"
       x="114.21037"
       y="23.081579"
       ry="2.1631773"
       rx="2.1631773"
       transform="rotate(82.173467)" />
    <path
       style="fill:none;stroke:#0000ff;stroke-width:0.54079431;stroke-linecap:butt;stroke-linejoin:miter;stroke-miterlimit:4;stroke-dasharray:none;stroke-opacity:1"
       d="m -11.14258,120.85237 -10.821949,1.48752"
       id="path4736-6-5-9-4"
       inkscape:connector-curvature="0" />
    <circle
       transform="matrix(-0.64044135,0.76800708,0.76800708,0.64044135,0,0)"
       style="fill:#ffffff;fill-opacity:1;stroke:#000000;stroke-width:0.54079425;stroke-miterlimit:4;stroke-dasharray:none;stroke-opacity:1"
       id="path821-6-5-6-2-3-6-10-9-5-4"
       cx="99.826126"
       cy="68.816689"
       r="2.6025388" />
    <circle
       transform="matrix(0.2448888,0.96955117,0.96955117,-0.2448888,0,0)"
       style="fill:#ffffff;fill-opacity:1;stroke:#0b9a0b;stroke-width:0.54079431;stroke-miterlimit:4;stroke-dasharray:none;stroke-opacity:1"
       id="path821-6-5-6-2-3-6-4-1-4-0-7"
       cx="113.31244"
       cy="-51.022865"
       r="2.6025393" />
    <path
       style="fill:none;stroke:#000000;stroke-width:0.14308515px;stroke-linecap:butt;stroke-linejoin:miter;stroke-opacity:1"
       d="m -22.829056,124.45243 v 0"
       id="path1138-6-4-4-6"
       inkscape:connector-curvature="0" />
    <g
       id="g2083"
       transform="matrix(0.61247777,0,0,0.61247777,-24.842866,43.187336)"
       style="stroke-width:0.81635618;stroke-miterlimit:4;stroke-dasharray:none">
      <path
         inkscape:connector-curvature="0"
         id="path1138-6-0-2"
         d="m -86.718211,148.12958 v 0"
         style="fill:none;stroke:#000000;stroke-width:0.81635618;stroke-linecap:butt;stroke-linejoin:miter;stroke-miterlimit:4;stroke-dasharray:none;stroke-opacity:1" />
      <path
         sodipodi:nodetypes="cc"
         style="fill:none;stroke:#ff0000;stroke-width:0.81635618;stroke-linecap:butt;stroke-linejoin:miter;stroke-miterlimit:4;stroke-dasharray:none;stroke-opacity:1"
         d="m -69.663951,166.42531 c -6.097562,7.89025 -11.212949,14.15513 -22.678498,4.62804"
         id="path4736-7-0-77-6"
         inkscape:connector-curvature="0" />
      <path
         sodipodi:nodetypes="cc"
         style="fill:none;stroke:#ff0000;stroke-width:0.81635618;stroke-linecap:butt;stroke-linejoin:miter;stroke-miterlimit:4;stroke-dasharray:none;stroke-opacity:1"
         d="m -114.997,166.3095 c 6.05715,7.92132 11.14044,14.21226 22.654551,4.74385"
         id="path4736-7-0-7-0-5"
         inkscape:connector-curvature="0" />
      <path
         sodipodi:nodetypes="cc"
         style="fill:none;stroke:#ff0000;stroke-width:0.81635618;stroke-linecap:butt;stroke-linejoin:miter;stroke-miterlimit:4;stroke-dasharray:none;stroke-opacity:1"
         d="m -92.230198,127.10785 c 9.881939,1.33554 17.865148,2.63316 15.347269,17.32611"
         id="path4736-7-0-3-6"
         inkscape:connector-curvature="0" />
      <path
         sodipodi:nodetypes="cc"
         style="fill:none;stroke:#ff0000;stroke-width:0.81635618;stroke-linecap:butt;stroke-linejoin:miter;stroke-miterlimit:4;stroke-dasharray:none;stroke-opacity:1"
         d="m -69.663951,166.42531 c 3.831469,-9.20634 6.737901,-16.75406 -7.218978,-21.99135"
         id="path4736-7-0-7-1-9"
         inkscape:connector-curvature="0" />
      <path
         inkscape:connector-curvature="0"
         id="path4736-1-3"
         d="m -81.457223,153.26012 -5.437654,-9.47414"
         style="fill:none;stroke:#ff0000;stroke-width:0.81635618;stroke-linecap:butt;stroke-linejoin:miter;stroke-miterlimit:4;stroke-dasharray:none;stroke-opacity:1" />
      <path
         inkscape:connector-curvature="0"
         id="path4736-1-4-7"
         d="m -97.86688,162.67843 10.923665,0.0279"
         style="fill:none;stroke:#ff0000;stroke-width:0.81635618;stroke-linecap:butt;stroke-linejoin:miter;stroke-miterlimit:4;stroke-dasharray:none;stroke-opacity:1" />
      <path
         inkscape:connector-curvature="0"
         id="path4736-1-6-4"
         d="m -103.30453,153.2043 5.485981,-9.44622"
         style="fill:none;stroke:#ff0000;stroke-width:0.81635618;stroke-linecap:butt;stroke-linejoin:miter;stroke-miterlimit:4;stroke-dasharray:none;stroke-opacity:1" />
      <path
         inkscape:connector-curvature="0"
         id="path4736-79-5"
         d="m -86.943218,162.70633 5.486001,-9.44623"
         style="fill:none;stroke:#0000ff;stroke-width:0.81635618;stroke-linecap:butt;stroke-linejoin:miter;stroke-miterlimit:4;stroke-dasharray:none;stroke-opacity:1" />
      <path
         inkscape:connector-curvature="0"
         id="path4736-7-5-2"
         d="m -81.457217,153.2601 10.679163,2.29845"
         style="fill:none;stroke:#ff0000;stroke-width:0.81635618;stroke-linecap:butt;stroke-linejoin:miter;stroke-miterlimit:4;stroke-dasharray:none;stroke-opacity:1" />
      <path
         inkscape:connector-curvature="0"
         id="path4736-5-9-5"
         d="m -70.778054,155.55855 1.114096,10.86674"
         style="fill:none;stroke:#ff0000;stroke-width:0.81635618;stroke-linecap:butt;stroke-linejoin:miter;stroke-miterlimit:4;stroke-dasharray:none;stroke-opacity:1" />
      <path
         inkscape:connector-curvature="0"
         id="path4736-9-3-4"
         d="m -69.663958,166.42529 -9.990628,4.41758"
         style="fill:none;stroke:#ff0000;stroke-width:0.81635618;stroke-linecap:butt;stroke-linejoin:miter;stroke-miterlimit:4;stroke-dasharray:none;stroke-opacity:1" />
      <path
         inkscape:connector-curvature="0"
         id="path4736-8-4-7"
         d="m -79.65458,170.84285 -7.288638,-8.13652"
         style="fill:none;stroke:#ff0000;stroke-width:0.81635618;stroke-linecap:butt;stroke-linejoin:miter;stroke-miterlimit:4;stroke-dasharray:none;stroke-opacity:1" />
      <path
         sodipodi:nodetypes="cc"
         style="fill:none;stroke:#ff0000;stroke-width:0.81635618;stroke-linecap:butt;stroke-linejoin:miter;stroke-miterlimit:4;stroke-dasharray:none;stroke-opacity:1"
         d="m -115.16488,166.30908 c -3.7844,-9.22577 -6.65224,-16.78826 7.33122,-21.95418"
         id="path4736-7-0-4"
         inkscape:connector-curvature="0" />
      <path
         sodipodi:nodetypes="cc"
         style="fill:none;stroke:#ff0000;stroke-width:0.81635618;stroke-linecap:butt;stroke-linejoin:miter;stroke-miterlimit:4;stroke-dasharray:none;stroke-opacity:1"
         d="m -92.39809,127.10743 c -9.88863,1.285 -17.87838,2.54181 -15.43557,17.24747"
         id="path4736-7-0-7-4"
         inkscape:connector-curvature="0" />
      <path
         inkscape:connector-curvature="0"
         id="path4736-96-3"
         d="m -103.30454,153.20429 5.437669,9.47413"
         style="fill:none;stroke:#0000ff;stroke-width:0.81635618;stroke-linecap:butt;stroke-linejoin:miter;stroke-miterlimit:4;stroke-dasharray:none;stroke-opacity:1" />
      <path
         inkscape:connector-curvature="0"
         id="path4736-7-56-0"
         d="m -97.866871,162.67842 -7.330099,8.09919"
         style="fill:none;stroke:#ff0000;stroke-width:0.81635618;stroke-linecap:butt;stroke-linejoin:miter;stroke-miterlimit:4;stroke-dasharray:none;stroke-opacity:1" />
      <path
         inkscape:connector-curvature="0"
         id="path4736-5-8-7"
         d="m -105.19697,170.77761 -9.96791,-4.46853"
         style="fill:none;stroke:#ff0000;stroke-width:0.81635618;stroke-linecap:butt;stroke-linejoin:miter;stroke-miterlimit:4;stroke-dasharray:none;stroke-opacity:1" />
      <path
         inkscape:connector-curvature="0"
         id="path4736-9-2-8"
         d="m -115.16488,166.30908 1.16957,-10.86092"
         style="fill:none;stroke:#ff0000;stroke-width:0.81635618;stroke-linecap:butt;stroke-linejoin:miter;stroke-miterlimit:4;stroke-dasharray:none;stroke-opacity:1" />
      <path
         inkscape:connector-curvature="0"
         id="path4736-8-7-6"
         d="m -113.9953,155.44815 10.69076,-2.24386"
         style="fill:none;stroke:#ff0000;stroke-width:0.81635618;stroke-linecap:butt;stroke-linejoin:miter;stroke-miterlimit:4;stroke-dasharray:none;stroke-opacity:1" />
      <path
         inkscape:connector-curvature="0"
         id="path4736-88"
         d="m -86.894877,143.78598 -10.923681,-0.0279"
         style="fill:none;stroke:#0000ff;stroke-width:0.81635618;stroke-linecap:butt;stroke-linejoin:miter;stroke-miterlimit:4;stroke-dasharray:none;stroke-opacity:1" />
      <path
         inkscape:connector-curvature="0"
         id="path4736-7-4"
         d="m -97.818558,143.75808 -3.349062,-10.39764"
         style="fill:none;stroke:#ff0000;stroke-width:0.81635618;stroke-linecap:butt;stroke-linejoin:miter;stroke-miterlimit:4;stroke-dasharray:none;stroke-opacity:1" />
      <path
         inkscape:connector-curvature="0"
         id="path4736-5-3"
         d="m -101.16762,133.36044 8.853838,-6.3982"
         style="fill:none;stroke:#ff0000;stroke-width:0.81635618;stroke-linecap:butt;stroke-linejoin:miter;stroke-miterlimit:4;stroke-dasharray:none;stroke-opacity:1" />
      <path
         inkscape:connector-curvature="0"
         id="path4736-9-1"
         d="m -92.313782,126.96224 8.821032,6.44334"
         style="fill:none;stroke:#ff0000;stroke-width:0.81635618;stroke-linecap:butt;stroke-linejoin:miter;stroke-miterlimit:4;stroke-dasharray:none;stroke-opacity:1" />
      <path
         inkscape:connector-curvature="0"
         id="path4736-8-49"
         d="m -83.492747,133.40559 -3.40213,10.38039"
         style="fill:none;stroke:#ff0000;stroke-width:0.81635618;stroke-linecap:butt;stroke-linejoin:miter;stroke-miterlimit:4;stroke-dasharray:none;stroke-opacity:1" />
    </g>
    <rect
       style="opacity:1;fill:#a554ca;fill-opacity:0.58823529;stroke:none;stroke-width:0.51486969;stroke-linecap:round;stroke-linejoin:miter;stroke-miterlimit:4;stroke-dasharray:none;stroke-dashoffset:0;stroke-opacity:1"
       id="rect5404-0-4"
       width="7.9475708"
       height="19.438707"
       x="155.39667"
       y="-29.838923"
       ry="2.1631773"
       rx="2.1631773"
       transform="rotate(120.14637)" />
    <path
       style="fill:none;stroke:#0000ff;stroke-width:0.54079431;stroke-linecap:butt;stroke-linejoin:miter;stroke-miterlimit:4;stroke-dasharray:none;stroke-opacity:1"
       d="m -58.064273,150.60512 -9.446224,-5.48599"
       id="path4736-6-5-9"
       inkscape:connector-curvature="0" />
    <circle
       transform="matrix(-0.97740719,0.21136505,0.21136505,0.97740719,0,0)"
       style="fill:#ffffff;fill-opacity:1;stroke:#000000;stroke-width:0.54079425;stroke-miterlimit:4;stroke-dasharray:none;stroke-opacity:1"
       id="path821-6-5-6-2-3-6-10-9-5"
       cx="88.459587"
       cy="134.90518"
       r="2.6025388" />
    <circle
       transform="matrix(-0.40350761,0.91497629,0.91497629,0.40350761,0,0)"
       style="fill:#ffffff;fill-opacity:1;stroke:#0b9a0b;stroke-width:0.54079431;stroke-miterlimit:4;stroke-dasharray:none;stroke-opacity:1"
       id="path821-6-5-6-2-3-6-4-1-4-0"
       cx="160.09807"
       cy="-2.9812837"
       r="2.6025393" />
    <path
       style="fill:none;stroke:#000000;stroke-width:0.14308515px;stroke-linecap:butt;stroke-linejoin:miter;stroke-opacity:1"
       d="m -69.491813,146.2525 v 0"
       id="path1138-6-4-4"
       inkscape:connector-curvature="0" />
    <rect
       style="opacity:1;fill:#a554ca;fill-opacity:0.58823529;stroke:none;stroke-width:0.51486969;stroke-linecap:round;stroke-linejoin:miter;stroke-miterlimit:4;stroke-dasharray:none;stroke-dashoffset:0;stroke-opacity:1"
       id="rect5404-0-7-6"
       width="7.9475708"
       height="19.438707"
       x="-82.372841"
       y="-170.17387"
       ry="2.1631773"
       rx="2.1631773"
       transform="rotate(-119.85363)" />
    <path
       style="fill:none;stroke:#0000ff;stroke-width:0.54079431;stroke-linecap:butt;stroke-linejoin:miter;stroke-miterlimit:4;stroke-dasharray:none;stroke-opacity:1"
       d="m -104.75009,150.48588 9.474118,-5.43767"
       id="path4736-6-5-8-1"
       inkscape:connector-curvature="0" />
    <circle
       transform="matrix(0.30565608,-0.95214199,-0.95214199,-0.30565608,0,0)"
       style="fill:#ffffff;fill-opacity:1;stroke:#000000;stroke-width:0.54079425;stroke-miterlimit:4;stroke-dasharray:none;stroke-opacity:1"
       id="path821-6-5-6-2-3-6-10-9-6-0"
       cx="-175.42741"
       cy="53.715862"
       r="2.6025388" />
    <circle
       transform="matrix(-0.5906389,-0.80693599,-0.80693599,0.5906389,0,0)"
       style="fill:#ffffff;fill-opacity:1;stroke:#0b9a0b;stroke-width:0.54079425;stroke-miterlimit:4;stroke-dasharray:none;stroke-opacity:1"
       id="path821-6-5-6-2-3-6-4-1-4-9-6"
       cx="-60.69524"
       cy="162.7851"
       r="2.6025388" />
    <path
       style="fill:none;stroke:#000000;stroke-width:0.14308515px;stroke-linecap:butt;stroke-linejoin:miter;stroke-opacity:1"
       d="m -95.266842,142.76565 v 0"
       id="path1138-6-4-8-1"
       inkscape:connector-curvature="0" />
    <path
       style="fill:none;stroke:#000000;stroke-width:0.14308515px;stroke-linecap:butt;stroke-linejoin:miter;stroke-opacity:1"
       d="m -55.580568,71.55354 v 0"
       id="path1138-6-0"
       inkscape:connector-curvature="0"
       inkscape:export-xdpi="251"
       inkscape:export-ydpi="251" />
    <rect
       style="opacity:1;fill:#a554ca;fill-opacity:0.58823529;stroke:none;stroke-width:0.51483625;stroke-linecap:round;stroke-linejoin:miter;stroke-miterlimit:4;stroke-dasharray:none;stroke-dashoffset:0;stroke-opacity:1"
       id="rect5404"
       width="7.9475708"
       height="19.438707"
       x="-65.814331"
       y="72.428078"
       ry="2.1631773"
       rx="2.1631773"
       transform="rotate(-0.0117034)"
       inkscape:export-xdpi="251"
       inkscape:export-ydpi="251" />
    <path
       style="fill:none;stroke:#0000ff;stroke-width:0.54079431;stroke-linecap:butt;stroke-linejoin:miter;stroke-miterlimit:4;stroke-dasharray:none;stroke-opacity:1"
       d="m -61.799479,76.855068 0.0022,10.923704"
       id="path4736-6"
       inkscape:connector-curvature="0" />
    <circle
       transform="matrix(0.67379221,0.73892088,0.73892088,-0.67379221,0,0)"
       style="fill:#ffffff;fill-opacity:1;stroke:#000000;stroke-width:0.54079425;stroke-miterlimit:4;stroke-dasharray:none;stroke-opacity:1"
       id="path821-6-5-6-2-3-6-10"
       cx="15.024158"
       cy="-97.473534"
       r="2.6025391" />
    <circle
       transform="matrix(0.99384467,-0.11078255,-0.11078255,-0.99384467,0,0)"
       style="fill:#ffffff;fill-opacity:1;stroke:#0b9a0b;stroke-width:0.54079431;stroke-miterlimit:4;stroke-dasharray:none;stroke-opacity:1"
       id="path821-6-5-6-2-3-6-4-1"
       cx="-71.065094"
       cy="-80.160416"
       r="2.6025391"
       inkscape:export-xdpi="251"
       inkscape:export-ydpi="251" />
    <path
       style="fill:none;stroke:#000000;stroke-width:0.14308515px;stroke-linecap:butt;stroke-linejoin:miter;stroke-opacity:1"
       d="m -59.821891,88.922507 v 0"
       id="path1138-6"
       inkscape:connector-curvature="0"
       inkscape:export-xdpi="251"
       inkscape:export-ydpi="251" />
    <text
       xml:space="preserve"
       style="font-style:normal;font-weight:normal;font-size:3.81560421px;line-height:1.25;font-family:sans-serif;letter-spacing:0px;word-spacing:0px;fill:#000000;fill-opacity:1;stroke:none;stroke-width:0.14308515"
       x="-61.815186"
       y="76.842445"
       id="text1937"
       transform="rotate(-0.0117034)"
       inkscape:export-xdpi="251"
       inkscape:export-ydpi="251"><tspan
         sodipodi:role="line"
         id="tspan1935"
         x="-61.815186"
         y="76.842445"
         style="stroke-width:0.14308515">`</tspan></text>
    <rect
       style="opacity:1;fill:#a554ca;fill-opacity:0.58823529;stroke:none;stroke-width:0.51486969;stroke-linecap:round;stroke-linejoin:miter;stroke-miterlimit:4;stroke-dasharray:none;stroke-dashoffset:0;stroke-opacity:1"
       id="rect5404-0-7-6-1"
       width="7.9475708"
       height="19.438707"
       x="-15.897788"
       y="-161.05476"
       ry="2.1631773"
       rx="2.1631773"
       transform="rotate(-157.82654)" />
    <path
       style="fill:none;stroke:#0000ff;stroke-width:0.54079431;stroke-linecap:butt;stroke-linejoin:miter;stroke-miterlimit:4;stroke-dasharray:none;stroke-opacity:1"
       d="m -48.099702,149.54668 4.122733,-10.11584"
       id="path4736-6-5-8-1-7"
       inkscape:connector-curvature="0" />
    <circle
       transform="matrix(-0.34489297,-0.93864202,-0.93864202,0.34489297,0,0)"
       style="fill:#ffffff;fill-opacity:1;stroke:#000000;stroke-width:0.54079425;stroke-miterlimit:4;stroke-dasharray:none;stroke-opacity:1"
       id="path821-6-5-6-2-3-6-10-9-6-0-8"
       cx="-123.90755"
       cy="96.70182"
       r="2.6025388" />
    <circle
       transform="matrix(-0.96210035,-0.27269565,-0.27269565,0.96210035,0,0)"
       style="fill:#ffffff;fill-opacity:1;stroke:#0b9a0b;stroke-width:0.54079425;stroke-miterlimit:4;stroke-dasharray:none;stroke-opacity:1"
       id="path821-6-5-6-2-3-6-4-1-4-9-6-5"
       cx="4.3637481"
       cy="146.37115"
       r="2.6025388" />
    <path
       style="fill:none;stroke:#000000;stroke-width:0.14308515px;stroke-linecap:butt;stroke-linejoin:miter;stroke-opacity:1"
       d="m -43.87119,137.51919 v 0"
       id="path1138-6-4-8-1-7"
       inkscape:connector-curvature="0" />
    <path
       style="fill:none;stroke:#000000;stroke-width:0.14308515px;stroke-linecap:butt;stroke-linejoin:miter;stroke-opacity:1"
       d="m -78.743347,121.33884 v 0"
       id="path1138-6-6"
       inkscape:connector-curvature="0" />
    <rect
       style="opacity:1;fill:#a554ca;fill-opacity:0.58823529;stroke:none;stroke-width:0.51486969;stroke-linecap:round;stroke-linejoin:miter;stroke-miterlimit:4;stroke-dasharray:none;stroke-dashoffset:0;stroke-opacity:1"
       id="rect5404-0-7"
       width="7.9475708"
       height="19.438707"
       x="0.82048965"
       y="-150.1604"
       ry="2.1631773"
       rx="2.1631773"
       transform="rotate(-147.99473)"
       inkscape:export-xdpi="251"
       inkscape:export-ydpi="251" />
    <path
       style="fill:none;stroke:#0000ff;stroke-width:0.54079431;stroke-linecap:butt;stroke-linejoin:miter;stroke-miterlimit:4;stroke-dasharray:none;stroke-opacity:1"
       d="m -81.331813,121.03807 5.789529,-9.2633"
       id="path4736-6-5-8"
       inkscape:connector-curvature="0"
       inkscape:export-xdpi="251"
       inkscape:export-ydpi="251" />
    <circle
       transform="matrix(-0.17954832,-0.98374916,-0.98374916,0.17954832,0,0)"
       style="fill:#ffffff;fill-opacity:1;stroke:#0b9a0b;stroke-width:0.54079425;stroke-miterlimit:4;stroke-dasharray:none;stroke-opacity:1"
       id="path821-6-5-6-2-3-6-10-9-6"
       cx="-104.59351"
       cy="101.71797"
       r="2.6025391"
       inkscape:export-xdpi="251"
       inkscape:export-ydpi="251" />
    <circle
       transform="matrix(-0.70567313,-0.70853754,-0.70853754,0.70567313,0,0)"
       style="fill:#ffffff;fill-opacity:1;stroke:#0b9a0b;stroke-width:0.54079425;stroke-miterlimit:4;stroke-dasharray:none;stroke-opacity:1"
       id="path821-6-5-6-2-3-6-4-1-4-9"
       cx="-25.911903"
       cy="132.49794"
       r="2.6025391"
       inkscape:export-xdpi="251"
       inkscape:export-ydpi="251" />
    <path
       style="fill:none;stroke:#000000;stroke-width:0.14308515px;stroke-linecap:butt;stroke-linejoin:miter;stroke-opacity:1"
       d="m -75.711777,109.49207 v 0"
       id="path1138-6-4-8"
       inkscape:connector-curvature="0"
       inkscape:export-xdpi="251"
       inkscape:export-ydpi="251" />
    <rect
       style="opacity:1;fill:#a554ca;fill-opacity:0.58823529;stroke:none;stroke-width:0.51483625;stroke-linecap:round;stroke-linejoin:miter;stroke-miterlimit:4;stroke-dasharray:none;stroke-dashoffset:0;stroke-opacity:1"
       id="rect5404-06-8"
       width="7.9475708"
       height="19.438707"
       x="29.893564"
       y="101.41779"
       ry="2.1631773"
       rx="2.1631773"
       transform="rotate(39.358193)"
       inkscape:transform-center-x="3.7432323"
       inkscape:transform-center-y="-0.82773265" />
    <path
       style="fill:none;stroke:#0000ff;stroke-width:0.54079431;stroke-linecap:butt;stroke-linejoin:miter;stroke-miterlimit:4;stroke-dasharray:none;stroke-opacity:1"
       d="m -40.909819,103.32295 -6.927446,8.44617"
       id="path4736-6-9-0"
       inkscape:connector-curvature="0" />
    <circle
       transform="matrix(0.05217098,0.99863817,0.99863817,-0.05217098,0,0)"
       style="fill:#ffffff;fill-opacity:1;stroke:#000000;stroke-width:0.54079425;stroke-miterlimit:4;stroke-dasharray:none;stroke-opacity:1"
       id="path821-6-5-6-2-3-6-10-2-3"
       cx="100.92229"
       cy="-46.268829"
       r="2.6025391" />
    <circle
       transform="matrix(0.83858057,0.54477759,0.54477759,-0.83858057,0,0)"
       style="fill:#ffffff;fill-opacity:1;stroke:#0b9a0b;stroke-width:0.54079431;stroke-miterlimit:4;stroke-dasharray:none;stroke-opacity:1"
       id="path821-6-5-6-2-3-6-4-1-6-0"
       cx="20.850088"
       cy="-119.55618"
       r="2.6025393"
       inkscape:transform-center-x="9.077686"
       inkscape:transform-center-y="-0.12298818" />
  </g>
</svg>
